\select@language {ngerman}
\contentsline {chapter}{\numberline {1}Einleitung}{4}{chapter.1}
\contentsline {chapter}{\numberline {2}Was ist Meditation?}{7}{chapter.2}
\contentsline {chapter}{\numberline {3}Sitzmeditation}{17}{chapter.3}
\contentsline {chapter}{\numberline {4}Gehmeditation}{26}{chapter.4}
\contentsline {chapter}{\numberline {5}Grundlagen}{33}{chapter.5}
\contentsline {chapter}{\numberline {6}Achtsame Prostration}{43}{chapter.6}
\contentsline {chapter}{\numberline {7}Alltag}{50}{chapter.7}
\contentsline {chapter}{\numberline {8}Anhang}{61}{chapter.8}
